Ml-Models-Exercise – Saraa Al Jawad Data Analysis Portfolio
…
lasso_preds_no_cv <- collect_predictions(lasso_tune_no_cv)

lasso_rmse_no_cv <- lasso_preds_no_cv %>%
  group_by(penalty) %>%
  rmse(truth = Y, estimate = .pred)

lasso_rmse_no_cv %>%
  arrange(.estimate)

# A tibble: 50 × 4
     penalty .metric .estimator .estimate
       <dbl> <chr>   <chr>          <dbl>
 1 0.00001   rmse    standard        581.
 2 0.0000139 rmse    standard        581.
 3 0.0000193 rmse    standard        581.
 4 0.0000268 rmse    standard        581.
 5 0.0000373 rmse    standard        581.
 6 0.0000518 rmse    standard        581.
 7 0.0000720 rmse    standard        581.
 8 0.0001    rmse    standard        581.
 9 0.000139  rmse    standard        581.
10 0.000193  rmse    standard        581.
# ℹ 40 more rows
…
rf_preds_no_cv <- collect_predictions(rf_tune_no_cv)

rf_rmse_no_cv <- rf_preds_no_cv %>%
  group_by(mtry, min_n) %>%
  rmse(truth = Y, estimate = .pred)

rf_rmse_no_cv %>%
  arrange(.estimate)

# A tibble: 49 × 5
    mtry min_n .metric .estimator .estimate
   <int> <int> <chr>   <chr>          <dbl>
 1     7     1 rmse    standard        254.
 2     4     1 rmse    standard        255.
 3     3     1 rmse    standard        255.
 4     6     1 rmse    standard        256.
 5     5     1 rmse    standard        256.
 6     7     4 rmse    standard        285.
 7     6     4 rmse    standard        288.
 8     2     1 rmse    standard        290.
 9     4     4 rmse    standard        293.
10     5     4 rmse    standard        294.
# ℹ 39 more rows
…
