CDC Data Exercise – Saraa Al Jawad Data Analysis Portfolio
…
(b) by state

state_data <- cdc_data %>%
  filter(group == "By State")

state_summary <- state_data %>%
  group_by(subgroup) %>%   # subgroup = state name
  summarize(
    mean_value = mean(value, na.rm = TRUE)
  )

state_summary

# A tibble: 51 × 2
   subgroup             mean_value
   <chr>                     <dbl>
 1 Alabama                    23.2
 2 Alaska                     20.8
 3 Arizona                    24.0
 4 Arkansas                   22.0
 5 California                 24.5
 6 Colorado                   24.4
 7 Connecticut                22.0
 8 Delaware                   18.5
 9 District of Columbia       16.4
10 Florida                    24.1
# ℹ 41 more rows
…
#Looking at the synthetic state data
##Group the synthetic data by state
Joe_state_data <- syn_dat %>%
  filter(Group == "By State")

##Summarize the mean values for age ranges
Joe_state_summary <- Joe_state_data %>%
  group_by(Subgroup_Age_Sex_State) %>%
  summarize(
    mean_value_state = mean(Value, na.rm = TRUE)
  )
Joe_state_summary

# A tibble: 51 × 2
   Subgroup_Age_Sex_State mean_value_state
   <chr>                             <dbl>
 1 Alabama                            23.3
 2 Alaska                             23.0
 3 Arizona                            24.2
 4 Arkansas                           20.6
 5 California                         25.4
 6 Colorado                           23.7
 7 Connecticut                        23.9
 8 Delaware                           17.6
 9 District of Columbia               18.8
10 Florida                            23.2
# ℹ 41 more rows
…
